{
  "Ф И З К У Л Ь Т У Р А": "Физкультура",
  "И Н О С Т Р А Н Н Ы Й     Я З Ы К": "Ин.яз",
  "ФИЗИКА": "Физика",
  "МАТЕМАТИЧЕСКИЙ   АНАЛИЗ": "МА",
  "ЭКОНОМИКА   ОРГАНИЗАЦИИ": "ЭО",
  "МАТЕРИАЛЫ   ЭЛЕКТРОННОЙ   ТЕХНИКИ": "МЭТ",
  "ТЕОРЕТИЧЕСКИЕ  ОСНОВЫ  ЭЛЕКТРОТЕХНИКИ": "ТОЭ"
}